Kwangmin Kim - ANOVA
…
공유해주신 example data는 sample, Day, Run, Ct의 변수들을 포함하고 있습니다. 특히 sample은 여기서 같은 값을 갖고있기 때문에 의미가 없는 변수입니다. 공유해주신 정보에 따르면 아마도 Run은 오전과 오후를 나누는 변수인 것으로 생각 됩니다. 이 data만 보면 아마도 같은 샘플에 대해서 시약 제품이 시간에 따라 얼마나 안정적인 performance (Ct값)를 보여주는지 검사하는 실험으로 추측됩니다. 좀 더 분석하기 용이한 형태로 data structure를 바꾸겠습니다.

2.1.2 Processed Data

# A tibble: 120 × 5
      id Day   noon    Run    Ct
   <int> <fct> <fct> <int> <dbl>
 1     1 1     AM        1  38.3
 2     2 1     AM        2  36.6
 3     3 1     AM        3  36.7
 4     4 1     PM        1  38.4
 5     5 1     PM        2  37.9
 6     6 1     PM        3  38.5
 7     7 2     AM        1  36.5
 8     8 2     AM        2  37.4
 9     9 2     AM        3  38.3
10    10 2     PM        1  37.3
# … with 110 more rows
…
Analysis-In program의 결과에서 찾아 볼 수 없죠? 이 결과는 숨어 있습니다. 상호 작용에 대한 분산값을 구하고 나면 정체를 알 수 있습니다.

\(SS_{noon}\) = 0.70545 with \(df=1\).

2.3.3 SS_error (집단내 분산)

집단 내 분산 (within-groups variability)

# A tibble: 119 × 10
   Day   noon    Run    Ct count combi_group_Ct_…¹ resid…²    df resid…³ mean_…⁴
   <fct> <fct> <int> <dbl> <int>             <dbl>   <dbl> <dbl>   <dbl>   <dbl>
 1 1     AM        1  38.3     3              37.2 1.29e+0    79    54.5   0.690
 2 1     AM        2  36.6     3              37.2 3.76e-1    79    54.5   0.690
 3 1     AM        3  36.7     3              37.2 2.74e-1    79    54.5   0.690
 4 1     PM        1  38.4     3              38.3 2.25e-2    79    54.5   0.690
 5 1     PM        2  37.9     3              38.3 1.60e-1    79    54.5   0.690
 6 1     PM        3  38.5     3              38.3 6.25e-2    79    54.5   0.690
 7 2     AM        1  36.5     3              37.4 7.63e-1    79    54.5   0.690
 8 2     AM        2  37.4     3              37.4 1.11e-5    79    54.5   0.690
 9 2     AM        3  38.3     3              37.4 7.69e-1    79    54.5   0.690
10 2     PM        1  37.3     3              37.5 3.36e-2    79    54.5   0.690
# … with 109 more rows, and abbreviated variable names ¹​combi_group_Ct_mean,
#   ²​residual_sq, ³​residual_ssq, ⁴​mean_residual_ssq

\(SS_{error}\) = 54.50093

Analysis-In program의 결과와 일치하는 것을 확인할 수 있습니다.

2.3.4 SS_total

# A tibble: 119 × 6
      id Day   noon    Run    Ct total_ssq
   <int> <fct> <fct> <int> <dbl>     <dbl>
 1     1 1     AM        1  38.3      88.8
 2     2 1     AM        2  36.6      88.8
 3     3 1     AM        3  36.7      88.8
 4     4 1     PM        1  38.4      88.8
 5     5 1     PM        2  37.9      88.8
 6     6 1     PM        3  38.5      88.8
 7     7 2     AM        1  36.5      88.8
 8     8 2     AM        2  37.4      88.8
 9     9 2     AM        3  38.3      88.8
10    10 2     PM        1  37.3      88.8
# … with 109 more rows
…
